vhdl/compara.vcd
$date
  Sun Oct 26 21:52:30 2014
$end
$version
  GHDL v0
$end
$timescale
  1 fs
$end
$var reg 4 ! a[3:0] $end
$var reg 4 " b[3:0] $end
$var reg 1 # s3 $end
$var reg 1 $ s1 $end
$var reg 1 % s2 $end
$var reg 1 & s0_igual $end
$var reg 1 ' ab0 $end
$var reg 1 ( ab1 $end
$var reg 1 ) ab2 $end
$var reg 1 * ab3 $end
$var reg 1 + ab $end
$var reg 1 , ba $end
$scope module u0 $end
$var reg 4 - a[3:0] $end
$var reg 4 . b[3:0] $end
$var reg 1 / ab0 $end
$var reg 1 0 ab1 $end
$var reg 1 1 ab2 $end
$var reg 1 2 ab3 $end
$var reg 1 3 ab $end
$var reg 1 4 ba $end
$var reg 1 5 s3 $end
$var reg 1 6 s1 $end
$var reg 1 7 s2 $end
$var reg 1 8 s0_igual $end
$upscope $end
$enddefinitions $end
#0
b0011 !
b0010 "
1#
1$
1%
0&
1'
0(
0)
0*
1+
0,
b0011 -
b0010 .
1/
00
01
02
13
04
15
16
17
08
#5000000
b0111 !
b0100 "
0$
0'
1(
b0111 -
b0100 .
0/
10
06
#10000000
b0010 "
0$
0%
0'
0(
1)
b0010 .
0/
00
11
06
07
#15000000
b1001 !
b0011 "
0#
0%
0)
1*
b1001 -
b0011 .
01
12
05
07
#20000000
b0000 !
b0100 "
1#
0*
0+
1,
b0000 -
b0100 .
02
03
14
15
#25000000
b0101 !
b0110 "
1%
b0101 -
b0110 .
17
#30000000
b1111 !
b1111 "
1$
1&
0,
b1111 -
b1111 .
04
16
18
#35000000
b0101 !
b0011 "
0$
0%
0&
1)
1+
b0101 -
b0011 .
11
13
06
07
08
#40000000
b1010 !
b1001 "
1%
1(
0)
1+
0,
b1010 -
b1001 .
10
01
13
04
17
#45000000
b1001 !
b1100 "
0$
0%
0'
0(
0+
1,
b1001 -
b1100 .
0/
00
03
14
06
07
#50000000
b1100 !
b1010 "
1)
1+
0,
b1100 -
b1010 .
11
13
04
#55000000
b1101 !
b1000 "
b1101 -
b1000 .
#60000000
b1100 !
b1100 "
1$
1%
1&
0)
0+
0,
b1100 -
b1100 .
01
03
04
16
17
18
#65000000
b0000 !
b0000 "
b0000 -
b0000 .
