ALU_SAMPLE/aluComponente.vcd
$date
  Tue Dec  2 01:09:22 2014
$end
$version
  GHDL v0
$end
$timescale
  1 fs
$end
$var reg 8 ! salidaaru[7:0] $end
$var reg 8 " salidalou[7:0] $end
$var reg 1 # switch $end
$var reg 4 $ proceso[3:0] $end
$var reg 8 % salida[7:0] $end
$var reg 8 & a[7:0] $end
$var reg 8 ' b[7:0] $end
$scope module u0 $end
$var reg 8 ( op1[7:0] $end
$var reg 8 ) op2[7:0] $end
$var reg 4 * proceso[3:0] $end
$var reg 8 + res[7:0] $end
$var reg 8 , a[7:0] $end
$var reg 8 - b[7:0] $end
$var reg 8 . c[7:0] $end
$upscope $end
$scope module u1 $end
$var reg 8 / op1[7:0] $end
$var reg 8 0 op2[7:0] $end
$var reg 4 1 proceso[3:0] $end
$var reg 8 2 res[7:0] $end
$var reg 8 3 a[7:0] $end
$var reg 8 4 b[7:0] $end
$var reg 8 5 c[7:0] $end
$upscope $end
$scope module u2 $end
$var reg 8 6 desdearu[7:0] $end
$var reg 8 7 desdelou[7:0] $end
$var reg 1 8 switch $end
$var reg 8 9 salida[7:0] $end
$upscope $end
$enddefinitions $end
#0
b00000101 !
b11111100 "
1#
b0000 $
b11111100 %
b00000011 &
b00000010 '
b00000011 (
b00000010 )
b0000 *
b00000101 +
b00000011 ,
b00000010 -
b00000101 .
b00000011 /
b00000010 0
b0000 1
b11111100 2
b00000011 3
b00000010 4
b11111100 5
b00000101 6
b11111100 7
18
b11111100 9
#5000000
b00000011 !
b00000100 "
0#
b0001 $
b00000011 %
b00000111 &
b00000100 '
b00000111 (
b00000100 )
b0001 *
b00000011 +
b00000111 ,
b00000100 -
b00000011 .
b00000111 /
b00000100 0
b0001 1
b00000100 2
b00000111 3
b00000100 4
b00000100 5
b00000011 6
b00000100 7
08
b00000011 9
#10000000
b00001110 !
b00000111 "
1#
b0010 $
b00000111 %
b00000010 '
b00000010 )
b0010 *
b00001110 +
b00000010 -
b00001110 .
b00000010 0
b0010 1
b00000111 2
b00000010 4
b00000111 5
b00001110 6
b00000111 7
18
b00000111 9
#15000000
b00000011 !
b00001010 "
0#
b0011 $
b00000011 %
b00001001 &
b00000011 '
b00001001 (
b00000011 )
b0011 *
b00000011 +
b00001001 ,
b00000011 -
b00000011 .
b00001001 /
b00000011 0
b0011 1
b00001010 2
b00001001 3
b00000011 4
b00001010 5
b00000011 6
b00001010 7
08
b00000011 9
#20000000
b00000001 !
b11111111 "
1#
b0100 $
b11111111 %
b00000000 &
b00000100 '
b00000000 (
b00000100 )
b0100 *
b00000001 +
b00000000 ,
b00000100 -
b00000001 .
b00000000 /
b00000100 0
b0100 1
b11111111 2
b00000000 3
b00000100 4
b11111111 5
b00000001 6
b11111111 7
18
b11111111 9
#25000000
b00000111 !
b11111000 "
0#
b0101 $
b00000111 %
b00000101 &
b00000110 '
b00000101 (
b00000110 )
b0101 *
b00000111 +
b00000101 ,
b00000110 -
b00000111 .
b00000101 /
b00000110 0
b0101 1
b11111000 2
b00000101 3
b00000110 4
b11111000 5
b00000111 6
b11111000 7
08
b00000111 9
#30000000
1#
b0110 $
b11111000 %
b00001111 &
b00001111 '
b00001111 (
b00001111 )
b0110 *
b00001111 ,
b00001111 -
b00001111 /
b00001111 0
b0110 1
b00001111 3
b00001111 4
18
b11111000 9
#35000000
0#
b00000111 %
b00000101 &
b00000011 '
b00000101 (
b00000011 )
b00000101 ,
b00000011 -
b00000101 /
b00000011 0
b00000101 3
b00000011 4
08
b00000111 9
#40000000
1#
b11111000 %
18
b11111000 9
